Galfenol/shot100_Ch4.csv

"Record Length",100000,"Points",-1.00000000e-006,-2.00000000e-002
"Sample Interval",2.00000000e-010,s,-9.99800000e-007,-4.00000000e-002
"Trigger Point",5000,"Samples",-9.99600000e-007,0.00000000e+000
"Trigger Time",1.70946341e-010,s,-9.99400000e-007,6.00000000e-002
"",,,-9.99200000e-007,4.00000000e-002
"Horizontal Offset",-1.00000000e-006,s,-9.99000000e-007,0.00000000e+000
,,,-9.98800000e-007,-2.00000000e-002
,,,-9.98600000e-007,-4.00000000e-002
,,,-9.98400000e-007,-2.00000000e-002
,,,-9.98200000e-007,-4.00000000e-002
,,,-9.98000000e-007,2.00000000e-002
,,,-9.97800000e-007,4.00000000e-002
,,,-9.97600000e-007,4.00000000e-002
,,,-9.97400000e-007,2.00000000e-002
,,,-9.97200000e-007,2.00000000e-002
,,,-9.97000000e-007,2.00000000e-002
,,,-9.96800000e-007,0.00000000e+000
,,,-9.96600000e-007,0.00000000e+000
,,,-9.96400000e-007,2.00000000e-002
,,,-9.96200000e-007,2.00000000e-002
,,,-9.96000000e-007,2.00000000e-002
,,,-9.95800000e-007,0.00000000e+000
,,,-9.95600000e-007,0.00000000e+000
,,,-9.95400000e-007,-2.00000000e-002
,,,-9.95200000e-007,-2.00000000e-002
,,,-9.95000000e-007,-2.00000000e-002
,,,-9.94800000e-007,2.00000000e-002
,,,-9.94600000e-007,2.00000000e-002
,,,-9.94400000e-007,0.00000000e+000
,,,-9.94200000e-007,-2.00000000e-002
,,,-9.94000000e-007,0.00000000e+000
,,,-9.93800000e-007,-2.00000000e-002
,,,-9.93600000e-007,0.00000000e+000
,,,-9.93400000e-007,0.00000000e+000
,,,-9.93200000e-007,0.00000000e+000
,,,-9.93000000e-007,2.00000000e-002
,,,-9.92800000e-007,2.00000000e-002
,,,-9.92600000e-007,0.00000000e+000
,,,-9.92400000e-007,0.00000000e+000
,,,-9.92200000e-007,-2.00000000e-002
,,,-9.92000000e-007,0.00000000e+000
,,,-9.91800000e-007,0.00000000e+000
,,,-9.91600000e-007,4.00000000e-002
,,,-9.91400000e-007,6.00000000e-002
,,,-9.91200000e-007,4.00000000e-002
,,,-9.91000000e-007,0.00000000e+000
,,,-9.90800000e-007,0.00000000e+000
,,,-9.90600000e-007,-2.00000000e-002
,,,-9.90400000e-007,0.00000000e+000
,,,-9.90200000e-007,0.00000000e+000
,,,-9.90000000e-007,2.00000000e-002
,,,-9.89800000e-007,2.00000000e-002
,,,-9.89600000e-007,4.00000000e-002
,,,-9.89400000e-007,4.00000000e-002
,,,-9.89200000e-007,0.00000000e+000
,,,-9.89000000e-007,-2.00000000e-002
,,,-9.88800000e-007,0.00000000e+000
,,,-9.88600000e-007,2.00000000e-002
,,,-9.88400000e-007,6.00000000e-002
,,,-9.88200000e-007,4.00000000e-002
,,,-9.88000000e-007,0.00000000e+000
,,,-9.87800000e-007,-2.00000000e-002
,,,-9.87600000e-007,-2.00000000e-002
,,,-9.87400000e-007,-4.00000000e-002
,,,-9.87200000e-007,0.00000000e+000
,,,-9.87000000e-007,4.00000000e-002
,,,-9.86800000e-007,4.00000000e-002
,,,-9.86600000e-007,0.00000000e+000
,,,-9.86400000e-007,0.00000000e+000
,,,-9.86200000e-007,0.00000000e+000
,,,-9.86000000e-007,-2.00000000e-002
,,,-9.85800000e-007,0.00000000e+000
,,,-9.85600000e-007,0.00000000e+000
,,,-9.85400000e-007,0.00000000e+000
,,,-9.85200000e-007,4.00000000e-002
,,,-9.85000000e-007,2.00000000e-002
,,,-9.84800000e-007,2.00000000e-002
,,,-9.84600000e-007,0.00000000e+000
,,,-9.84400000e-007,-2.00000000e-002
,,,-9.84200000e-007,-2.00000000e-002
,,,-9.84000000e-007,0.00000000e+000
,,,-9.83800000e-007,4.00000000e-002
,,,-9.83600000e-007,6.00000000e-002
,,,-9.83400000e-007,2.00000000e-002
,,,-9.83200000e-007,0.00000000e+000
,,,-9.83000000e-007,-2.00000000e-002
,,,-9.82800000e-007,-4.00000000e-002
,,,-9.82600000e-007,-2.00000000e-002
,,,-9.82400000e-007,2.00000000e-002
,,,-9.82200000e-007,4.00000000e-002
,,,-9.82000000e-007,2.00000000e-002
,,,-9.81800000e-007,0.00000000e+000
,,,-9.81600000e-007,-2.00000000e-002
,,,-9.81400000e-007,0.00000000e+000
,,,-9.81200000e-007,0.00000000e+000
,,,-9.81000000e-007,0.00000000e+000
,,,-9.80800000e-007,4.00000000e-002
,,,-9.80600000e-007,4.00000000e-002
,,,-9.80400000e-007,2.00000000e-002
,,,-9.80200000e-007,-2.00000000e-002
,,,-9.80000000e-007,-2.00000000e-002
,,,-9.79800000e-007,-4.00000000e-002
,,,-9.79600000e-007,-2.00000000e-002
,,,-9.79400000e-007,2.00000000e-002
,,,-9.79200000e-007,2.00000000e-002
,,,-9.79000000e-007,2.00000000e-002
,,,-9.78800000e-007,0.00000000e+000
,,,-9.78600000e-007,0.00000000e+000
,,,-9.78400000e-007,-2.00000000e-002
,,,-9.78200000e-007,-2.00000000e-002
,,,-9.78000000e-007,-2.00000000e-002
,,,-9.77800000e-007,2.00000000e-002
,,,-9.77600000e-007,4.00000000e-002
,,,-9.77400000e-007,2.00000000e-002
,,,-9.77200000e-007,2.00000000e-002
,,,-9.77000000e-007,-4.00000000e-002
,,,-9.76800000e-007,-4.00000000e-002
,,,-9.76600000e-007,0.00000000e+000
,,,-9.76400000e-007,2.00000000e-002
,,,-9.76200000e-007,2.00000000e-002
,,,-9.76000000e-007,2.00000000e-002
,,,-9.75800000e-007,4.00000000e-002
,,,-9.75600000e-007,2.00000000e-002
,,,-9.75400000e-007,0.00000000e+000
,,,-9.75200000e-007,2.00000000e-002
,,,-9.75000000e-007,-2.00000000e-002
,,,-9.74800000e-007,0.00000000e+000
,,,-9.74600000e-007,2.00000000e-002
,,,-9.74400000e-007,4.00000000e-002
,,,-9.74200000e-007,2.00000000e-002
,,,-9.74000000e-007,2.00000000e-002
,,,-9.73800000e-007,0.00000000e+000
,,,-9.73600000e-007,-4.00000000e-002
,,,-9.73400000e-007,-4.00000000e-002
,,,-9.73200000e-007,2.00000000e-002
,,,-9.73000000e-007,4.00000000e-002
,,,-9.72800000e-007,6.00000000e-002
,,,-9.72600000e-007,4.00000000e-002
,,,-9.72400000e-007,0.00000000e+000
,,,-9.72200000e-007,-4.00000000e-002
,,,-9.72000000e-007,-2.00000000e-002
,,,-9.71800000e-007,2.00000000e-002
,,,-9.71600000e-007,4.00000000e-002
,,,-9.71400000e-007,2.00000000e-002
,,,-9.71200000e-007,4.00000000e-002
,,,-9.71000000e-007,2.00000000e-002
,,,-9.70800000e-007,2.00000000e-002
,,,-9.70600000e-007,-2.00000000e-002
,,,-9.70400000e-007,-4.00000000e-002
,,,-9.70200000e-007,-4.00000000e-002
,,,-9.70000000e-007,0.00000000e+000
,,,-9.69800000e-007,2.00000000e-002
,,,-9.69600000e-007,2.00000000e-002
,,,-9.69400000e-007,2.00000000e-002
,,,-9.69200000e-007,2.00000000e-002
,,,-9.69000000e-007,0.00000000e+000
,,,-9.68800000e-007,-2.00000000e-002
,,,-9.68600000e-007,0.00000000e+000
,,,-9.68400000e-007,2.00000000e-002
,,,-9.68200000e-007,4.00000000e-002
,,,-9.68000000e-007,4.00000000e-002
,,,-9.67800000e-007,2.00000000e-002
,,,-9.67600000e-007,0.00000000e+000
,,,-9.67400000e-007,0.00000000e+000
,,,-9.67200000e-007,0.00000000e+000
,,,-9.67000000e-007,-2.00000000e-002
,,,-9.66800000e-007,2.00000000e-002
,,,-9.66600000e-007,4.00000000e-002
,,,-9.66400000e-007,2.00000000e-002
,,,-9.66200000e-007,2.00000000e-002
,,,-9.66000000e-007,0.00000000e+000
,,,-9.65800000e-007,0.00000000e+000
,,,-9.65600000e-007,-2.00000000e-002
,,,-9.65400000e-007,0.00000000e+000
,,,-9.65200000e-007,2.00000000e-002
,,,-9.65000000e-007,4.00000000e-002
,,,-9.64800000e-007,6.00000000e-002
,,,-9.64600000e-007,4.00000000e-002
,,,-9.64400000e-007,2.00000000e-002
,,,-9.64200000e-007,-2.00000000e-002
,,,-9.64000000e-007,0.00000000e+000
,,,-9.63800000e-007,0.00000000e+000
,,,-9.63600000e-007,4.00000000e-002
,,,-9.63400000e-007,6.00000000e-002
,,,-9.63200000e-007,2.00000000e-002
,,,-9.63000000e-007,2.00000000e-002
,,,-9.62800000e-007,-4.00000000e-002
,,,-9.62600000e-007,-6.00000000e-002
,,,-9.62400000e-007,-4.00000000e-002
,,,-9.62200000e-007,0.00000000e+000
,,,-9.62000000e-007,4.00000000e-002
,,,-9.61800000e-007,4.00000000e-002
,,,-9.61600000e-007,2.00000000e-002
,,,-9.61400000e-007,0.00000000e+000
,,,-9.61200000e-007,-2.00000000e-002
,,,-9.61000000e-007,-2.00000000e-002
,,,-9.60800000e-007,-2.00000000e-002
,,,-9.60600000e-007,0.00000000e+000
,,,-9.60400000e-007,4.00000000e-002
,,,-9.60200000e-007,4.00000000e-002
,,,-9.60000000e-007,-2.00000000e-002
,,,-9.59800000e-007,-4.00000000e-002
,,,-9.59600000e-007,0.00000000e+000
,,,-9.59400000e-007,-2.00000000e-002
,,,-9.59200000e-007,-2.00000000e-002
,,,-9.59000000e-007,0.00000000e+000
,,,-9.58800000e-007,4.00000000e-002
,,,-9.58600000e-007,6.00000000e-002
,,,-9.58400000e-007,4.00000000e-002
,,,-9.58200000e-007,2.00000000e-002
,,,-9.58000000e-007,-4.00000000e-002
,,,-9.57800000e-007,-4.00000000e-002
,,,-9.57600000e-007,2.00000000e-002
,,,-9.57400000e-007,2.00000000e-002
,,,-9.57200000e-007,2.00000000e-002
,,,-9.57000000e-007,0.00000000e+000
,,,-9.56800000e-007,2.00000000e-002
,,,-9.56600000e-007,0.00000000e+000
,,,-9.56400000e-007,0.00000000e+000
,,,-9.56200000e-007,-4.00000000e-002
,,,-9.56000000e-007,0.00000000e+000
,,,-9.55800000e-007,2.00000000e-002
,,,-9.55600000e-007,4.00000000e-002
,,,-9.55400000e-007,2.00000000e-002
,,,-9.55200000e-007,2.00000000e-002
,,,-9.55000000e-007,-4.00000000e-002
,,,-9.54800000e-007,-4.00000000e-002
,,,-9.54600000e-007,-4.00000000e-002
,,,-9.54400000e-007,0.00000000e+000
,,,-9.54200000e-007,0.00000000e+000
,,,-9.54000000e-007,4.00000000e-002
,,,-9.53800000e-007,2.00000000e-002
,,,-9.53600000e-007,0.00000000e+000
,,,-9.53400000e-007,-4.00000000e-002
,,,-9.53200000e-007,-4.00000000e-002
,,,-9.53000000e-007,-2.00000000e-002
,,,-9.52800000e-007,2.00000000e-002
,,,-9.52600000e-007,2.00000000e-002
,,,-9.52400000e-007,4.00000000e-002
,,,-9.52200000e-007,2.00000000e-002
,,,-9.52000000e-007,0.00000000e+000
,,,-9.51800000e-007,-2.00000000e-002
,,,-9.51600000e-007,-4.00000000e-002
,,,-9.51400000e-007,-2.00000000e-002
,,,-9.51200000e-007,2.00000000e-002
,,,-9.51000000e-007,6.00000000e-002
,,,-9.50800000e-007,0.00000000e+000
,,,-9.50600000e-007,0.00000000e+000
,,,-9.50400000e-007,-4.00000000e-002
,,,-9.50200000e-007,-6.00000000e-002
,,,-9.50000000e-007,-4.00000000e-002
,,,-9.49800000e-007,-4.00000000e-002
,,,-9.49600000e-007,0.00000000e+000
,,,-9.49400000e-007,2.00000000e-002
,,,-9.49200000e-007,2.00000000e-002
,,,-9.49000000e-007,2.00000000e-002
,,,-9.48800000e-007,0.00000000e+000
,,,-9.48600000e-007,-2.00000000e-002
,,,-9.48400000e-007,0.00000000e+000
,,,-9.48200000e-007,0.00000000e+000
,,,-9.48000000e-007,4.00000000e-002
,,,-9.47800000e-007,4.00000000e-002
,,,-9.47600000e-007,2.00000000e-002
,,,-9.47400000e-007,-4.00000000e-002
,,,-9.47200000e-007,-2.00000000e-002
,,,-9.47000000e-007,-2.00000000e-002
,,,-9.46800000e-007,0.00000000e+000
,,,-9.46600000e-007,2.00000000e-002
,,,-9.46400000e-007,2.00000000e-002
,,,-9.46200000e-007,2.00000000e-002
,,,-9.46000000e-007,0.00000000e+000
,,,-9.45800000e-007,-4.00000000e-002
,,,-9.45600000e-007,-2.00000000e-002
,,,-9.45400000e-007,-6.00000000e-002
,,,-9.45200000e-007,-2.00000000e-002
,,,-9.45000000e-007,2.00000000e-002
,,,-9.44800000e-007,4.00000000e-002
,,,-9.44600000e-007,4.00000000e-002
,,,-9.44400000e-007,4.00000000e-002
,,,-9.44200000e-007,0.00000000e+000
,,,-9.44000000e-007,-2.00000000e-002
,,,-9.43800000e-007,-4.00000000e-002
,,,-9.43600000e-007,-4.00000000e-002
,,,-9.43400000e-007,2.00000000e-002
,,,-9.43200000e-007,4.00000000e-002
,,,-9.43000000e-007,6.00000000e-002
,,,-9.42800000e-007,2.00000000e-002
,,,-9.42600000e-007,-2.00000000e-002
,,,-9.42400000e-007,-2.00000000e-002
,,,-9.42200000e-007,-2.00000000e-002
,,,-9.42000000e-007,-2.00000000e-002
,,,-9.41800000e-007,2.00000000e-002
,,,-9.41600000e-007,6.00000000e-002
,,,-9.41400000e-007,2.00000000e-002
,,,-9.41200000e-007,0.00000000e+000
,,,-9.41000000e-007,0.00000000e+000
,,,-9.40800000e-007,-2.00000000e-002
,,,-9.40600000e-007,0.00000000e+000
,,,-9.40400000e-007,0.00000000e+000
,,,-9.40200000e-007,2.00000000e-002
,,,-9.40000000e-007,4.00000000e-002
,,,-9.39800000e-007,2.00000000e-002
,,,-9.39600000e-007,2.00000000e-002
,,,-9.39400000e-007,0.00000000e+000
,,,-9.39200000e-007,0.00000000e+000
,,,-9.39000000e-007,-2.00000000e-002
,,,-9.38800000e-007,2.00000000e-002
,,,-9.38600000e-007,4.00000000e-002
,,,-9.38400000e-007,2.00000000e-002
,,,-9.38200000e-007,2.00000000e-002
,,,-9.38000000e-007,0.00000000e+000
,,,-9.37800000e-007,0.00000000e+000
,,,-9.37600000e-007,-2.00000000e-002
,,,-9.37400000e-007,0.00000000e+000
,,,-9.37200000e-007,2.00000000e-002
,,,-9.37000000e-007,4.00000000e-002
,,,-9.36800000e-007,2.00000000e-002
,,,-9.36600000e-007,0.00000000e+000
,,,-9.36400000e-007,-2.00000000e-002
,,,-9.36200000e-007,-4.00000000e-002
,,,-9.36000000e-007,-2.00000000e-002
,,,-9.35800000e-007,-2.00000000e-002
,,,-9.35600000e-007,2.00000000e-002
,,,-9.35400000e-007,0.00000000e+000
,,,-9.35200000e-007,0.00000000e+000
,,,-9.35000000e-007,0.00000000e+000
,,,-9.34800000e-007,0.00000000e+000
,,,-9.34600000e-007,-2.00000000e-002
,,,-9.34400000e-007,2.00000000e-002
,,,-9.34200000e-007,0.00000000e+000
,,,-9.34000000e-007,0.00000000e+000
,,,-9.33800000e-007,2.00000000e-002
,,,-9.33600000e-007,2.00000000e-002
,,,-9.33400000e-007,2.00000000e-002
,,,-9.33200000e-007,2.00000000e-002
,,,-9.33000000e-007,-2.00000000e-002
,,,-9.32800000e-007,0.00000000e+000
,,,-9.32600000e-007,-2.00000000e-002
,,,-9.32400000e-007,2.00000000e-002
,,,-9.32200000e-007,2.00000000e-002
,,,-9.32000000e-007,2.00000000e-002
,,,-9.31800000e-007,0.00000000e+000
,,,-9.31600000e-007,-2.00000000e-002
,,,-9.31400000e-007,-4.00000000e-002
,,,-9.31200000e-007,-2.00000000e-002
,,,-9.31000000e-007,0.00000000e+000
,,,-9.30800000e-007,2.00000000e-002
,,,-9.30600000e-007,4.00000000e-002
,,,-9.30400000e-007,4.00000000e-002
,,,-9.30200000e-007,2.00000000e-002
,,,-9.30000000e-007,2.00000000e-002
,,,-9.29800000e-007,0.00000000e+000
,,,-9.29600000e-007,2.00000000e-002
,,,-9.29400000e-007,0.00000000e+000
,,,-9.29200000e-007,2.00000000e-002
,,,-9.29000000e-007,0.00000000e+000
,,,-9.28800000e-007,2.00000000e-002
,,,-9.28600000e-007,0.00000000e+000
,,,-9.28400000e-007,-2.00000000e-002
,,,-9.28200000e-007,-4.00000000e-002
,,,-9.28000000e-007,0.00000000e+000
,,,-9.27800000e-007,0.00000000e+000
,,,-9.27600000e-007,2.00000000e-002
,,,-9.27400000e-007,2.00000000e-002
,,,-9.27200000e-007,2.00000000e-002
,,,-9.27000000e-007,2.00000000e-002
,,,-9.26800000e-007,0.00000000e+000
,,,-9.26600000e-007,-2.00000000e-002
,,,-9.26400000e-007,0.00000000e+000
,,,-9.26200000e-007,2.00000000e-002
,,,-9.26000000e-007,2.00000000e-002
,,,-9.25800000e-007,0.00000000e+000
,,,-9.25600000e-007,0.00000000e+000
,,,-9.25400000e-007,-2.00000000e-002
,,,-9.25200000e-007,-2.00000000e-002
,,,-9.25000000e-007,-4.00000000e-002
,,,-9.24800000e-007,2.00000000e-002
,,,-9.24600000e-007,2.00000000e-002
,,,-9.24400000e-007,4.00000000e-002
,,,-9.24200000e-007,2.00000000e-002
,,,-9.24000000e-007,0.00000000e+000
,,,-9.23800000e-007,-4.00000000e-002
,,,-9.23600000e-007,-4.00000000e-002
,,,-9.23400000e-007,-4.00000000e-002
,,,-9.23200000e-007,2.00000000e-002
,,,-9.23000000e-007,4.00000000e-002
,,,-9.22800000e-007,8.00000000e-002
,,,-9.22600000e-007,4.00000000e-002
,,,-9.22400000e-007,0.00000000e+000
,,,-9.22200000e-007,-4.00000000e-002
,,,-9.22000000e-007,-2.00000000e-002
,,,-9.21800000e-007,-4.00000000e-002
,,,-9.21600000e-007,0.00000000e+000
,,,-9.21400000e-007,0.00000000e+000
,,,-9.21200000e-007,2.00000000e-002
,,,-9.21000000e-007,0.00000000e+000
,,,-9.20800000e-007,0.00000000e+000
,,,-9.20600000e-007,-2.00000000e-002
,,,-9.20400000e-007,-2.00000000e-002
,,,-9.20200000e-007,0.00000000e+000
,,,-9.20000000e-007,4.00000000e-002
,,,-9.19800000e-007,4.00000000e-002
,,,-9.19600000e-007,4.00000000e-002
,,,-9.19400000e-007,2.00000000e-002
,,,-9.19200000e-007,0.00000000e+000
,,,-9.19000000e-007,-4.00000000e-002
,,,-9.18800000e-007,-2.00000000e-002
,,,-9.18600000e-007,2.00000000e-002
,,,-9.18400000e-007,6.00000000e-002
,,,-9.18200000e-007,4.00000000e-002
,,,-9.18000000e-007,2.00000000e-002
,,,-9.17800000e-007,0.00000000e+000
,,,-9.17600000e-007,-2.00000000e-002
,,,-9.17400000e-007,-2.00000000e-002
,,,-9.17200000e-007,-2.00000000e-002
,,,-9.17000000e-007,2.00000000e-002
,,,-9.16800000e-007,2.00000000e-002
,,,-9.16600000e-007,2.00000000e-002
,,,-9.16400000e-007,2.00000000e-002
,,,-9.16200000e-007,4.00000000e-002
,,,-9.16000000e-007,2.00000000e-002
,,,-9.15800000e-007,-2.00000000e-002
,,,-9.15600000e-007,-4.00000000e-002
,,,-9.15400000e-007,-2.00000000e-002
,,,-9.15200000e-007,4.00000000e-002
,,,-9.15000000e-007,4.00000000e-002
,,,-9.14800000e-007,2.00000000e-002
,,,-9.14600000e-007,2.00000000e-002
,,,-9.14400000e-007,0.00000000e+000
,,,-9.14200000e-007,0.00000000e+000
,,,-9.14000000e-007,0.00000000e+000
,,,-9.13800000e-007,0.00000000e+000
,,,-9.13600000e-007,2.00000000e-002
,,,-9.13400000e-007,4.00000000e-002
,,,-9.13200000e-007,2.00000000e-002
,,,-9.13000000e-007,0.00000000e+000
,,,-9.12800000e-007,0.00000000e+000
,,,-9.12600000e-007,0.00000000e+000
,,,-9.12400000e-007,2.00000000e-002
,,,-9.12200000e-007,2.00000000e-002
,,,-9.12000000e-007,6.00000000e-002
,,,-9.11800000e-007,2.00000000e-002
,,,-9.11600000e-007,0.00000000e+000
,,,-9.11400000e-007,0.00000000e+000
,,,-9.11200000e-007,-4.00000000e-002
,,,-9.11000000e-007,-2.00000000e-002
,,,-9.10800000e-007,2.00000000e-002
,,,-9.10600000e-007,0.00000000e+000
,,,-9.10400000e-007,4.00000000e-002
,,,-9.10200000e-007,4.00000000e-002
,,,-9.10000000e-007,0.00000000e+000
,,,-9.09800000e-007,-2.00000000e-002
,,,-9.09600000e-007,-2.00000000e-002
,,,-9.09400000e-007,-2.00000000e-002
,,,-9.09200000e-007,0.00000000e+000
,,,-9.09000000e-007,6.00000000e-002
,,,-9.08800000e-007,4.00000000e-002
,,,-9.08600000e-007,2.00000000e-002
,,,-9.08400000e-007,0.00000000e+000
,,,-9.08200000e-007,0.00000000e+000
,,,-9.08000000e-007,0.00000000e+000
,,,-9.07800000e-007,-2.00000000e-002
,,,-9.07600000e-007,-2.00000000e-002
,,,-9.07400000e-007,0.00000000e+000
,,,-9.07200000e-007,4.00000000e-002
,,,-9.07000000e-007,6.00000000e-002
,,,-9.06800000e-007,2.00000000e-002
,,,-9.06600000e-007,-2.00000000e-002
,,,-9.06400000e-007,-4.00000000e-002
,,,-9.06200000e-007,-2.00000000e-002
,,,-9.06000000e-007,2.00000000e-002
,,,-9.05800000e-007,6.00000000e-002
,,,-9.05600000e-007,4.00000000e-002
,,,-9.05400000e-007,0.00000000e+000
,,,-9.05200000e-007,-2.00000000e-002
,,,-9.05000000e-007,0.00000000e+000
,,,-9.04800000e-007,-2.00000000e-002
,,,-9.04600000e-007,0.00000000e+000
,,,-9.04400000e-007,2.00000000e-002
,,,-9.04200000e-007,8.00000000e-002
,,,-9.04000000e-007,6.00000000e-002
,,,-9.03800000e-007,2.00000000e-002
,,,-9.03600000e-007,-2.00000000e-002
,,,-9.03400000e-007,-4.00000000e-002
,,,-9.03200000e-007,0.00000000e+000
,,,-9.03000000e-007,2.00000000e-002
,,,-9.02800000e-007,4.00000000e-002
,,,-9.02600000e-007,2.00000000e-002
,,,-9.02400000e-007,0.00000000e+000
,,,-9.02200000e-007,2.00000000e-002
,,,-9.02000000e-007,2.00000000e-002
,,,-9.01800000e-007,0.00000000e+000
,,,-9.01600000e-007,-2.00000000e-002
,,,-9.01400000e-007,0.00000000e+000
,,,-9.01200000e-007,2.00000000e-002
,,,-9.01000000e-007,2.00000000e-002
,,,-9.00800000e-007,2.00000000e-002
,,,-9.00600000e-007,0.00000000e+000
,,,-9.00400000e-007,-4.00000000e-002
,,,-9.00200000e-007,-2.00000000e-002
,,,-9.00000000e-007,0.00000000e+000
,,,-8.99800000e-007,-2.00000000e-002
,,,-8.99600000e-007,4.00000000e-002
,,,-8.99400000e-007,6.00000000e-002
,,,-8.99200000e-007,2.00000000e-002
,,,-8.99000000e-007,2.00000000e-002
,,,-8.98800000e-007,0.00000000e+000
,,,-8.98600000e-007,0.00000000e+000
,,,-8.98400000e-007,2.00000000e-002
,,,-8.98200000e-007,0.00000000e+000
,,,-8.98000000e-007,4.00000000e-002
,,,-8.97800000e-007,4.00000000e-002
,,,-8.97600000e-007,0.00000000e+000
,,,-8.97400000e-007,0.00000000e+000
,,,-8.97200000e-007,-2.00000000e-002
,,,-8.97000000e-007,-4.00000000e-002
,,,-8.96800000e-007,0.00000000e+000
,,,-8.96600000e-007,0.00000000e+000
,,,-8.96400000e-007,4.00000000e-002
,,,-8.96200000e-007,6.00000000e-002
,,,-8.96000000e-007,4.00000000e-002
,,,-8.95800000e-007,2.00000000e-002
,,,-8.95600000e-007,0.00000000e+000
,,,-8.95400000e-007,0.00000000e+000
,,,-8.95200000e-007,0.00000000e+000
,,,-8.95000000e-007,0.00000000e+000
,,,-8.94800000e-007,2.00000000e-002
,,,-8.94600000e-007,0.00000000e+000
,,,-8.94400000e-007,2.00000000e-002
,,,-8.94200000e-007,2.00000000e-002
,,,-8.94000000e-007,2.00000000e-002
,,,-8.93800000e-007,0.00000000e+000
,,,-8.93600000e-007,0.00000000e+000
,,,-8.93400000e-007,0.00000000e+000
,,,-8.93200000e-007,2.00000000e-002
,,,-8.93000000e-007,0.00000000e+000
,,,-8.92800000e-007,0.00000000e+000
,,,-8.92600000e-007,-2.00000000e-002
,,,-8.92400000e-007,-4.00000000e-002
,,,-8.92200000e-007,-2.00000000e-002
,,,-8.92000000e-007,0.00000000e+000
,,,-8.91800000e-007,2.00000000e-002
,,,-8.91600000e-007,4.00000000e-002
,,,-8.91400000e-007,2.00000000e-002
,,,-8.91200000e-007,0.00000000e+000
,,,-8.91000000e-007,-2.00000000e-002
,,,-8.90800000e-007,0.00000000e+000
